…
Criando a variável `xco2_est` a partir da retirada da tendência.

``` r
oco2 |> 
  mutate(
    xco2_est = coefs[1] + coefs[2] * as.numeric(data),
    delta = xco2_est - xco2,
    XCO2 = (coefs[1]-delta) - (mean(xco2) - coefs[1])
  ) 
#> # A tibble: 37,387 × 26
#>    longitude longitude_bnds latitude latitude_bnds time_yyyymmddhhmmss
#>        <dbl> <chr>             <dbl> <chr>                       <dbl>
#>  1     -70.5 -71.0:-70.0        -5.5 -6.0:-5.0                 2.01e13
#>  2     -70.5 -71.0:-70.0        -4.5 -5.0:-4.0                 2.01e13
#>  3     -69.5 -70.0:-69.0       -10.5 -11.0:-10.0               2.01e13
#>  4     -69.5 -70.0:-69.0        -9.5 -10.0:-9.0                2.01e13
#>  5     -69.5 -70.0:-69.0        -8.5 -9.0:-8.0                 2.01e13
#>  6     -69.5 -70.0:-69.0        -7.5 -8.0:-7.0                 2.01e13
#>  7     -69.5 -70.0:-69.0        -6.5 -7.0:-6.0                 2.01e13
#>  8     -69.5 -70.0:-69.0        -5.5 -6.0:-5.0                 2.01e13
#>  9     -68.5 -69.0:-68.0       -10.5 -11.0:-10.0               2.01e13
#> 10     -46.5 -47.0:-46.0        -1.5 -2.0:-1.0                 2.01e13
#> # ℹ 37,377 more rows
#> # ℹ 21 more variables: time_bnds_yyyymmddhhmmss <chr>, altitude_km <dbl>,
#> #   alt_bnds_km <chr>,
#> #   fluorescence_radiance_757nm_uncert_idp_ph_sec_1_m_2_sr_1_um_1 <dbl>,
#> #   fluorescence_radiance_757nm_idp_ph_sec_1_m_2_sr_1_um_1 <dbl>,
#> #   xco2_moles_mole_1 <dbl>, aerosol_total_aod <dbl>,
#> #   fluorescence_offset_relative_771nm_idp <dbl>, …
…
